\relax 
\providecommand\hyper@newdestlabel[2]{}
\providecommand\HyperFirstAtBeginDocument{\AtBeginDocument}
\HyperFirstAtBeginDocument{\ifx\hyper@anchor\@undefined
\global\let\oldcontentsline\contentsline
\gdef\contentsline#1#2#3#4{\oldcontentsline{#1}{#2}{#3}}
\global\let\oldnewlabel\newlabel
\gdef\newlabel#1#2{\newlabelxx{#1}#2}
\gdef\newlabelxx#1#2#3#4#5#6{\oldnewlabel{#1}{{#2}{#3}}}
\AtEndDocument{\ifx\hyper@anchor\@undefined
\let\contentsline\oldcontentsline
\let\newlabel\oldnewlabel
\fi}
\fi}
\global\let\hyper@last\relax 
\gdef\HyperFirstAtBeginDocument#1{#1}
\providecommand\HyField@AuxAddToFields[1]{}
\providecommand\HyField@AuxAddToCoFields[2]{}
\citation{Magaud:2010,Barticevic:2010,MacDonald:2011}
\citation{Cao:2018a,Cao:2018b}
\citation{Kaxiras:2018a,Chittari:2019}
\citation{Dean:2019}
\citation{Ohta:2006,Neto:2007,Wang:2009}
\citation{Choi:2018}
\citation{Wirtz:2004}
\citation{Kolmogorov:2005}
\newlabel{FirstPage}{{}{1}{}{section*.1}{}}
\@writefile{toc}{\contentsline {title}{ Intrinsic Band Gap and Electrically Tunable Flat Bands\\ in Twisted Double Bilayer Graphene }{1}{section*.2}\protected@file@percent }
\@writefile{toc}{\contentsline {abstract}{Abstract}{1}{section*.1}\protected@file@percent }
\citation{Moon:2012,Ando:2000}
\@writefile{lof}{\contentsline {figure}{\numberline {1}{\ignorespaces  Schematic (a) top and (b) side view of the twisted double bilayer graphene. (c) Relaxation patterns of TDBG at $\theta =1.25^\circ $. (left) In-plane displacements relative to the perfect honeycomb lattice positions in the (top) first and (bottom) second layer. (right) Out-of-plane deviations from the average $z$-coordinates of each layer. The remaining two layers have similar relaxation patterns, except that the directions are opposite. }}{2}{figure.1}\protected@file@percent }
\newlabel{fig:lattice}{{1}{2}{Schematic (a) top and (b) side view of the twisted double bilayer graphene. (c) Relaxation patterns of TDBG at $\theta =1.25^\circ $. (left) In-plane displacements relative to the perfect honeycomb lattice positions in the (top) first and (bottom) second layer. (right) Out-of-plane deviations from the average $z$-coordinates of each layer. The remaining two layers have similar relaxation patterns, except that the directions are opposite}{figure.1}{}}
\@writefile{lof}{\contentsline {figure}{\numberline {2}{\ignorespaces  Band structures and density of states (DOS) of (a,c) twisted bilayer graphene and (b,d) twisted double bilayer graphene with the relaxed atomic structures. In (a-d), the absolute values of DOS are normalized to the same unit of states/meV/$\mathrm  {nm}^{-2}$ so that their magnitudes can be directly compared. (e) The bandwidths of the flat bands in TBG and TDBG as a function of twist angle. (f) $\Delta _{\mathrm  {CNP}}$ is the band gap at the charge neutral point, and $\Delta {s,e(h)}$ is the band gap at the full filling of the flat bands in the electron (hole) side. }}{2}{figure.2}\protected@file@percent }
\newlabel{fig:band}{{2}{2}{Band structures and density of states (DOS) of (a,c) twisted bilayer graphene and (b,d) twisted double bilayer graphene with the relaxed atomic structures. In (a-d), the absolute values of DOS are normalized to the same unit of states/meV/$\mathrm {nm}^{-2}$ so that their magnitudes can be directly compared. (e) The bandwidths of the flat bands in TBG and TDBG as a function of twist angle. (f) $\Delta _{\mathrm {CNP}}$ is the band gap at the charge neutral point, and $\Delta {s,e(h)}$ is the band gap at the full filling of the flat bands in the electron (hole) side}{figure.2}{}}
\citation{Nam:2017,Choi:2018}
\citation{supplemental}
\@writefile{lof}{\contentsline {figure}{\numberline {3}{\ignorespaces  Band structure of TDBG at $\theta =1.25^\circ $ with the vertical electric field (a) $E_z$ = 0 mV/\r A$\tmspace  +\thickmuskip {.2777em}$and (b) $E_z$ = 5 mV/\r A. The horizontal dashed lines denote the half-filling energies of the electron-side flat bands. (c,d) The corresponding Fermi surfaces. (e,f) The electronic density of states with and without electric fields. The partial density of states from the first and the other layers are indicated by red and blue colors, respectively. }}{3}{figure.3}\protected@file@percent }
\newlabel{fig:bias}{{3}{3}{Band structure of TDBG at $\theta =1.25^\circ $ with the vertical electric field (a) $E_z$ = 0 mV/\AA $\;$and (b) $E_z$ = 5 mV/\AA . The horizontal dashed lines denote the half-filling energies of the electron-side flat bands. (c,d) The corresponding Fermi surfaces. (e,f) The electronic density of states with and without electric fields. The partial density of states from the first and the other layers are indicated by red and blue colors, respectively}{figure.3}{}}
\citation{Moon:2014}
\bibcite{Magaud:2010}{{1}{}{{}}{{}}}
\bibcite{Barticevic:2010}{{2}{}{{}}{{}}}
\bibcite{MacDonald:2011}{{3}{}{{}}{{}}}
\bibcite{Cao:2018a}{{4}{}{{}}{{}}}
\bibcite{Cao:2018b}{{5}{}{{}}{{}}}
\@writefile{lof}{\contentsline {figure}{\numberline {4}{\ignorespaces  Bandwidths of the electron-side flat bands in TDBG at different electric field strength. $E_z$ is increased by 1 mV/{\r A} from 0 to 5 mV/\r A. For the comparison, the bandwidths of the flat bands in TBG are denoted by the red triangles. }}{4}{figure.4}\protected@file@percent }
\newlabel{fig:bandwidth}{{4}{4}{Bandwidths of the electron-side flat bands in TDBG at different electric field strength. $E_z$ is increased by 1 mV/{\AA } from 0 to 5 mV/\AA . For the comparison, the bandwidths of the flat bands in TBG are denoted by the red triangles}{figure.4}{}}
\@writefile{toc}{\contentsline {section}{\numberline {}Acknowledgments}{4}{section*.3}\protected@file@percent }
\@writefile{toc}{\contentsline {section}{\numberline {}References}{4}{section*.4}\protected@file@percent }
\bibcite{Kaxiras:2018a}{{6}{}{{}}{{}}}
\bibcite{Chittari:2019}{{7}{}{{}}{{}}}
\bibcite{Dean:2019}{{8}{}{{}}{{}}}
\bibcite{Ohta:2006}{{9}{}{{}}{{}}}
\bibcite{Neto:2007}{{10}{}{{}}{{}}}
\bibcite{Wang:2009}{{11}{}{{}}{{}}}
\bibcite{Choi:2018}{{12}{}{{}}{{}}}
\bibcite{Wirtz:2004}{{13}{}{{}}{{}}}
\bibcite{Kolmogorov:2005}{{14}{}{{}}{{}}}
\bibcite{Moon:2012}{{15}{}{{}}{{}}}
\bibcite{Ando:2000}{{16}{}{{}}{{}}}
\bibcite{supplemental}{{17}{}{{}}{{}}}
\bibcite{Nam:2017}{{18}{}{{}}{{}}}
\bibcite{Moon:2014}{{19}{}{{}}{{}}}
\bibdata{manuscriptNotes}
\bibstyle{apsrev4-1}
\citation{REVTEX41Control}
\citation{apsrev41Control}
\providecommand\NAT@force@numbers{}\NAT@force@numbers
\newlabel{LastBibItem}{{19}{5}{}{section*.4}{}}
\newlabel{LastPage}{{}{5}{}{}{}}
