\relax 
\providecommand\hyper@newdestlabel[2]{}
\providecommand\HyperFirstAtBeginDocument{\AtBeginDocument}
\HyperFirstAtBeginDocument{\ifx\hyper@anchor\@undefined
\global\let\oldcontentsline\contentsline
\gdef\contentsline#1#2#3#4{\oldcontentsline{#1}{#2}{#3}}
\global\let\oldnewlabel\newlabel
\gdef\newlabel#1#2{\newlabelxx{#1}#2}
\gdef\newlabelxx#1#2#3#4#5#6{\oldnewlabel{#1}{{#2}{#3}}}
\AtEndDocument{\ifx\hyper@anchor\@undefined
\let\contentsline\oldcontentsline
\let\newlabel\oldnewlabel
\fi}
\fi}
\global\let\hyper@last\relax 
\gdef\HyperFirstAtBeginDocument#1{#1}
\providecommand\HyField@AuxAddToFields[1]{}
\providecommand\HyField@AuxAddToCoFields[2]{}
\newlabel{FirstPage}{{}{1}{}{section*.1}{}}
\@writefile{toc}{\contentsline {title}{ Supplemental Material: Intrinsic Band Gap and Electrically Tunable Flat Bands in Twisted Double Bilayer Graphene }{1}{section*.2}\protected@file@percent }
\@writefile{toc}{\contentsline {abstract}{Abstract}{1}{section*.1}\protected@file@percent }
\@writefile{toc}{\contentsline {subsection}{\numberline {}S1. Band structure of TDBG and TBG}{1}{section*.3}\protected@file@percent }
\@writefile{lof}{\contentsline {figure}{\numberline {S1}{\ignorespaces  Band structures of (left) TBG and (right) TDBG at (a,b) $\theta =1.79^\circ $ and (c,d) $\theta =1.25^\circ $ with the relaxed structures in a wide energy window. The band gaps at full fillings are clearly shown in all cases. }}{1}{figure.1}\protected@file@percent }
\newlabel{fig1}{{S1}{1}{Band structures of (left) TBG and (right) TDBG at (a,b) $\theta =1.79^\circ $ and (c,d) $\theta =1.25^\circ $ with the relaxed structures in a wide energy window. The band gaps at full fillings are clearly shown in all cases}{figure.1}{}}
\@writefile{toc}{\contentsline {subsection}{\numberline {}S2. Effects of lattice relaxation in TDBG}{1}{section*.4}\protected@file@percent }
\bibdata{supplementalNotes}
\bibstyle{apsrev4-1}
\citation{REVTEX41Control}
\citation{apsrev41Control}
\@writefile{lof}{\contentsline {figure}{\numberline {S2}{\ignorespaces  Band structures of TDBG with (left) nonrelaxed and (right) relaxed structures at various twist angles. The effects of the lattice relaxation become more important as the twist angle is lowered. }}{2}{figure.2}\protected@file@percent }
\newlabel{fig2}{{S2}{2}{Band structures of TDBG with (left) nonrelaxed and (right) relaxed structures at various twist angles. The effects of the lattice relaxation become more important as the twist angle is lowered}{figure.2}{}}
\@writefile{toc}{\contentsline {subsection}{\numberline {}S3. Biased TDBG with nonrelaxed structures}{2}{section*.5}\protected@file@percent }
\@writefile{toc}{\contentsline {section}{\numberline {}References}{2}{section*.6}\protected@file@percent }
\newlabel{LastBibItem}{{0}{2}{}{section*.6}{}}
\@writefile{lof}{\contentsline {figure}{\numberline {S3}{\ignorespaces  (a,b) Band structures, (c,d) Fermi surfaces at the half-filling energies of the electron-side flat bands, and (e,f) layer-resolved density of states for nonrelaxed TDBG at $\theta =1.25^\circ $ with (left) $E_z$ = 0 mV/{\r A} and (right) $E_z$ = 5 mV/{\r A}. }}{3}{figure.3}\protected@file@percent }
\newlabel{fig3}{{S3}{3}{(a,b) Band structures, (c,d) Fermi surfaces at the half-filling energies of the electron-side flat bands, and (e,f) layer-resolved density of states for nonrelaxed TDBG at $\theta =1.25^\circ $ with (left) $E_z$ = 0 mV/{\AA } and (right) $E_z$ = 5 mV/{\AA }}{figure.3}{}}
\newlabel{LastPage}{{}{3}{}{}{}}
