   23.4669043548569       1.880015107467159E-015  0.000000000000000E+000
   11.7334521774284        20.3229353194857       0.000000000000000E+000
  0.000000000000000E+000  0.000000000000000E+000   30.1500000000000     
         728
   13.0228497863190        17.7918652687162      -1.726953639919461E-002
   14.4411781237594        17.7174283226592      -2.087550025533965E-002
   15.2148142567823        18.9085283212219      -1.748723177785606E-002
   16.6331443097325        18.8340935796044      -2.334492597501066E-002
   17.4067798330511        20.0251903875521      -2.688031554232269E-002
   18.8251107441102        19.9507546974629      -3.500726377007361E-002
   10.7019576214742        14.2185809556895      -4.048160401382109E-002
   12.1202778738151        14.1441358956414      -4.464978276475436E-002
   12.8939117694078        15.3352325057425      -3.121812348352611E-002
   14.3122332496926        15.2607933925759      -3.267268004842321E-002
   15.0858705009233        16.4518929503222      -2.209959257415617E-002
   16.5041952519580        16.3774573152406      -2.358983706991532E-002
   17.2778331620854        17.5685579402124      -1.950120158134776E-002
   18.6961616946026        17.4941228260089      -2.286964606243454E-002
   19.4697975149791        18.6852199034555      -2.614163069771985E-002
   20.8881276726611        18.6107821709192      -3.091790626989946E-002
   21.6617587117543        19.8018721021991      -3.904248701493959E-002
   23.0800881883054        19.7274302411147      -4.282738022265643E-002
   8.38106801266615        10.6453252470442      -6.205143220094045E-002
   9.79938871200671        10.5708760367129      -7.290980766647870E-002
   10.5730200550729        11.7619621440749      -6.250930538751277E-002
   11.9913366509887        11.6875160412584      -6.738911273030269E-002
   12.7649705670489        12.8786060709699      -5.263637604501531E-002
   14.1832868161056        12.8041641872091      -5.247659321867274E-002
   14.9569247597312        13.9952597546151      -3.701095652261228E-002
   16.3752450796741        13.9208221757587      -3.462265797363964E-002
   17.1488854949636        15.1119208350552      -2.297839082080024E-002
   18.5672108399222        15.0374849720613      -2.150738574241809E-002
   19.3408508533197        16.2285836807334      -1.683107925545197E-002
   20.7591810862947        16.1541462115220      -1.782693127830490E-002
   21.5328168614168        17.3452421765122      -2.001899558601749E-002
   22.9511488177489        17.2708006689557      -2.254755555442820E-002
   23.7247794936370        18.4618906671985      -2.852030112822587E-002
   25.1431112169327        18.3874449984516      -3.018535946003326E-002
   25.9167370564388        19.5785296363704      -3.584826708051292E-002
   27.3350674607926        19.5040813188982      -3.462265797363964E-002
   6.06016447925046        7.07208767585108      -5.698450828677393E-002
   7.47849448544650        6.99764242096425      -7.284551022636777E-002
   8.25212654844828        8.18872252471334      -7.377174958489187E-002
   9.67044843009610        8.11427612559884      -8.562327095465093E-002
   10.4440784604629        9.30535479320411      -8.038566457479708E-002
   11.8623938333353        9.23090839826571      -8.571122280502695E-002
   12.6360265802342        10.4219913530863      -7.403051910593936E-002
   14.0543410378599        10.3475479025451      -7.284551022636777E-002
   14.8279775228811        11.5386350914172      -5.698450828677393E-002
   16.2462947685028        11.4641955868616      -5.167835667215646E-002
   17.0199361476510        12.6552878558923      -3.584826708051292E-002
   18.4382586218991        12.5808505448154      -3.018535946003326E-002
   19.2119018993976        13.7719470370646      -1.876147822957050E-002
   20.6302314726869        13.6975089465720      -1.599101146174994E-002
   21.4038732188704        14.8886059607209      -1.116211386662181E-002
   22.8222073222688        14.8141646217588      -1.217026490988829E-002
   23.5958430736728        16.0052582664023      -1.281814856792559E-002
   25.0141793348093        15.9308116243854      -1.599101146174994E-002
   25.7878093988298        17.1219020205463      -1.876147822957050E-002
   27.2061429297276        17.0474518881464      -2.150738574241809E-002
   27.9797689505122        18.2385397362149      -2.297839082080024E-002
   29.3981008132715        18.1640896241370      -2.358983706991532E-002
   30.1717263397163        19.3551770718085      -2.209959257415617E-002
   31.5900583101299        19.2807293618901      -2.087550025533965E-002
   3.73924754723908        3.49883889359107      -3.121812348352611E-002
   5.15758441774451        3.42440059182959      -4.464978276475436E-002
   5.93121904854000        4.61548575414010      -5.263637604501531E-002
   7.34955023049461        4.54104414445843      -6.738911273030269E-002
   8.12318179494526        5.73212434483511      -7.403051910593936E-002
   9.54150626528400        5.65768021023135      -8.571122280502695E-002
   10.3151359912038        6.84875734945404      -8.725927260368431E-002
   11.7334587070894        6.77431071979096      -9.270300710310735E-002
   12.5070820308091        7.96538683288507      -8.725927260368431E-002
   13.9253972204705        7.89094325023573      -8.562327095465093E-002
   14.6990306341479        9.08202283092884      -7.377174958489187E-002
   16.1173471944094        9.00758159331051      -6.674832999970753E-002
   16.8909864710676        10.1986663708264      -5.148172513567298E-002
   18.3093088753703        10.1242275721003      -4.282738022265643E-002
   19.0829526432105        11.3153164070745      -2.852030112822587E-002
   20.5012821778264        11.2408775877299      -2.254755555442820E-002
   21.2749269200421        12.4319703923106      -1.281814856792559E-002
   22.6932621502915        12.3575290006406      -1.217026490988829E-002
   23.4669093180042        13.5486259109244      -7.845887575157100E-003
   24.8852435920103        13.4741770165720      -1.217026490988829E-002
   25.6588787343424        14.6652697116878      -1.116211386662181E-002
   27.0772148073357        14.5908193507178      -1.782693127830490E-002
   27.8508446631537        15.7819106288239      -1.683107925545197E-002
   29.2691782918045        15.7074582451796      -2.286964606243454E-002
   30.0428052578969        16.8985492281501      -1.950120158134776E-002
   31.4611356971814        16.8240983321283      -2.334492597501066E-002
   32.2347631008214        18.0151908181253      -1.748723177785606E-002
   33.6530937361226        17.9407453339200      -1.971912033395196E-002
   34.4267244062045        19.1318406403189      -1.361868648916339E-002
   12.3781519894139        19.0574005540046      -1.654091123004131E-002
   13.1517864909397        20.2484975846994      -1.361868648916339E-002
   14.5701206196506        20.1740614244612      -1.971912033395196E-002
   3.61030437323757        1.04222127874842      -2.243896228023352E-002
   5.02863855544988       0.967785597826291      -3.249688430367680E-002
   5.80227323072703        2.15887669257634      -4.048160401382109E-002
   7.22060520024504        2.08443852101726      -5.257336036035305E-002
   7.99423631220063        3.27552289037799      -6.250930538751277E-002
   9.41256281080395        3.20108154779983      -7.290980766647870E-002
   10.1861914824834        4.39215986927668      -8.038566457479708E-002
   11.6045108817186        4.31771594365115      -8.562327095465093E-002
   12.3781385102724        5.50879113714662      -8.725927260368431E-002
   13.7964564336660        5.43434671098866      -8.571122280502695E-002
   14.5700865893390        6.62542065700493      -8.038566457479708E-002
   15.9884050094746        6.55097773497298      -7.290980766647870E-002
   16.7620402665835        7.74205488614956      -6.205143220094045E-002
   18.1803637609978        7.66761451561915      -5.192242735767049E-002
   18.9540050708417        8.85869728392858      -3.904248701493959E-002
   20.3723347290686        8.78425811655765      -3.091790626989946E-002
   21.1459799193525        9.97534532876882      -2.001899558601749E-002
   22.5643171709402        9.90090507673166      -1.782693127830490E-002
   23.3379611113578        11.0919949665627      -1.116211386662181E-002
   24.7563022570743        11.0175500680141      -1.599101146174994E-002
   25.5299430708557        12.2086419802586      -1.281814856792559E-002
   26.9482820689953        12.1341923822858      -2.254755555442820E-002
   27.7219162838013        13.3252831336905      -2.001899558601749E-002
   29.1402506628408        13.2508303514946      -3.091790626989946E-002
   29.9138807090584        14.4419214327326      -2.614163069771985E-002
   31.3322093754763        14.3674691567852      -3.500726377007361E-002
   32.1058380295714        15.5585619116905      -2.688031554232269E-002
   10.0572598128378        15.4841137851031      -3.249688430367680E-002
   10.8308900945705        16.6752093774937      -2.243896228023352E-002
   12.2492160001619        16.6007666345784      -2.584579899863403E-002
   7.86529093860995       0.818910241582328      -4.388105781550494E-002
   9.28361925388201       0.744471194610017      -5.192242735767049E-002
   10.0572482530356        1.93555518629194      -6.205143220094045E-002
   11.4755730666917        1.86111241085804      -6.674832999970753E-002
   12.2491993496891        3.05218996384354      -7.377174958489187E-002
   13.6675210089789        2.97774499597639      -7.284551022636777E-002
   14.4411481571058        4.16881962156432      -7.403051910593936E-002
   15.8594696508020        4.09437513376890      -6.738911273030269E-002
   16.6331001650118        5.28545028503278      -6.250930538751277E-002
   18.0514250429065        5.21100827360161      -5.257336036035305E-002
   18.8250618129223        6.40208664020061      -4.388105781550494E-002
   20.2433929449840        6.32764678472342      -3.500726377007361E-002
   21.0170348405331        7.51872930278328      -2.614163069771985E-002
   22.4353730781635        7.44428956778294      -2.286964606243454E-002
   23.2090175480972        8.63537632941415      -1.683107925545197E-002
   24.6273592949208        8.56093377876375      -2.150738574241809E-002
   25.4010017663431        9.75202158136055      -1.876147822957050E-002
   26.8193432257387        9.67757509570443      -3.018535946003326E-002
   27.5929809277231        10.8686635646984      -2.852030112822587E-002
   29.0113160008948        10.7942128257564      -4.282738022265643E-002
   29.7849492819745        11.9853012528437      -3.904248701493959E-002
   7.73637351740544        11.9108496092566      -5.192242735767049E-002
   8.51000378075300        13.1019384377028      -4.388105781550494E-002
   9.92832628913371        13.0274885248669      -5.257336036035305E-002
   12.1202631037523       0.595578755148749      -5.148172513567298E-002
   13.5385894053526       0.521133539161255      -5.167835667215646E-002
   14.3122145301538        1.71221255221745      -5.698450828677393E-002
   15.7305402297256        1.63776653397282      -5.247659321867274E-002
   16.5041669166964        2.82884349437576      -5.263637604501531E-002
   17.9224942407257        2.75439883201473      -4.464978276475436E-002
   18.6961256800841        3.94547767121984      -4.048160401382109E-002
   20.1144581639976        3.87103593655634      -3.249688430367680E-002
   20.8880952019481        5.06211833972888      -2.688031554232269E-002
   22.3064330576567        4.98767872723875      -2.334492597501066E-002
   23.0800746445883        6.17876347060898      -1.950120158134776E-002
   24.4984169993410        6.10432369959386      -2.358983706991532E-002
   25.2720586190948        7.29541006770134      -2.297839082080024E-002
   26.6904005241039        7.22096714431457      -3.462265797363964E-002
   27.4640398604808        8.41205314670870      -3.584826708051292E-002
   5.41547235842987        8.33760619346289      -5.167835667215646E-002
   6.18910695746539        9.52869019351060      -5.148172513567298E-002
   7.60743627118412        9.45424131531717      -6.674832999970753E-002
   16.3752402776214       0.372228637758472      -3.701095652261228E-002
   17.7935703124585       0.297781044075642      -3.267268004842321E-002
   18.5671972156384        1.48886392015216      -3.121812348352611E-002
   19.9855298051895        1.41441976961352      -2.584579899863403E-002
   20.7591620644772        2.60550466324359      -2.243896228023352E-002
   22.1774987087974        2.53106388059029      -1.971912033395196E-002
   22.9511357069669        3.72215149962421      -1.748723177785606E-002
   24.3694766306813        3.64771295442215      -2.087550025533965E-002
   25.1431162239309        4.83880061684081      -2.209959257415617E-002
   3.09455297013412        4.76436088283420      -3.267268004842321E-002
   3.86819149493263        5.95544692711219      -3.701095652261228E-002
   5.28652948645408        5.88100459830385      -5.247659321867274E-002
   20.6302345876872       0.148883940506680      -1.726953639919461E-002
   22.0485691925851       7.444096774610753E-002 -1.654091123004131E-002
   22.8222021674263        1.26553241395311      -1.361868648916339E-002
  0.773635350286292        1.19109379773500      -1.654091123004131E-002
   1.54727215827915        2.38218611026289      -1.726953639919461E-002
   2.96561072693393        2.30774891529380      -2.584579899863403E-002
   14.4420632062897        17.7175293229591        3.34155335257665     
   15.8600422749472        17.6435100228298        3.33933613094997     
   16.6322726257375        18.8347320781831        3.33867729637198     
   18.0501297914846        18.7607341270037        3.33215390371385     
   18.8226498460220        19.9518064782727        3.32337371883923     
   20.2406969225282        19.8773873607007        3.31430892991501     
   12.1233694647588        14.1442122055602        3.31083847459776     
   13.5418237882982        14.0693167550320        3.31034884510290     
   14.3146386268074        15.2601757077372        3.32624346472712     
   15.7327361313769        15.1858029741999        3.32780045693986     
   16.5050074048978        16.3768711263752        3.33842387879938     
   17.9228881991414        16.3028768025955        3.33754573734664     
   18.6949986278031        17.4940252503104        3.33931549318226     
   20.1129660600653        17.4199476710060        3.33450868289251     
   20.8853768031732        18.6109765032322        3.32833033784587     
   22.3036815474998        18.5364445563821        3.32253754320571     
   23.0766522116737        19.7272796799772        3.31290600850600     
   24.4953308500415        19.6523035043977        3.31041183262109     
   9.80165043441396        10.5723887667760        3.27690877425088     
   11.2201683028555        10.4969934160510        3.26927182175833     
   11.9942158193404        11.6876049497389        3.28328535353769     
   13.4126379559318        11.6123711635046        3.28275247108237     
   14.1862660998620        12.8030540421844        3.30115682083323     
   15.6044495766263        12.7282873730782        3.30539255772160     
   16.3774496448247        13.9192023886761        3.32380272312285     
   17.7953655332673        13.8450138921974        3.32812546308603     
   18.5678235184000        15.0362224489099        3.34088053693296     
   19.9857055859455        14.9623415498303        3.34101008758271     
   20.7580355094251        16.1536063092955        3.34521693742411     
   22.1762186925925        16.0795245018273        3.34124192716958     
   22.9487422115778        17.2706078695647        3.33870746372582     
   24.3673939465429        17.1960873221313        3.33438969180147     
   25.1402676701202        18.3869961131641        3.32915215942325     
   26.5593553346146        18.3121250714333        3.32812546308603     
   27.3325624014550        19.5029820030148        3.32380272312285     
   28.7518274416909        19.4280199910618        3.32780045693986     
   7.47849317128872        7.00037606716737        3.27697047546335     
   8.89672953513707        6.92519318952909        3.26206581763797     
   9.67133194097320        8.11584843388877        3.26266831329974     
   11.0897288856759        8.04043431647252        3.25451980342175     
   11.8641362431753        9.23102168386293        3.26258271638036     
   13.2824806381071        9.15554493669315        3.26206581763797     
   14.0567091019956        10.3461822175375        3.27697047546335     
   15.4749099354649        10.2711111556947        3.28277827790445     
   16.2487884254210        11.4619096769658        3.30206059740378     
   17.6667492070026        11.3874270380417        3.31041183262109     
   18.4400691413677        12.5786124036827        3.32915215942325     
   19.8578632697811        12.5047385206637        3.33438969180147     
   20.6307494556507        13.6962221608151        3.34721939134242     
   22.0487262601175        13.6225090928777        3.34603266762131     
   22.8215140768587        14.8138851647303        3.35174080207535     
   24.2399801625147        14.7398590301817        3.34603266762131     
   25.0128059541728        15.9310064308584        3.34721939134242     
   26.4318194441366        15.8565711140709        3.34101008758271     
   27.2047432133667        17.0475525545959        3.34088053693296     
   28.6241657211018        16.9727557480289        3.33754573734664     
   29.3971870823527        18.1636793734920        3.33842387879938     
   30.8166111090792        18.0889161123571        3.33933613094997     
   31.5897032376903        19.2799123577844        3.34155335257665     
   33.0087089570629        19.2055772562548        3.34477988619563     
   5.15597253594439        3.42703983316561        3.31083847459776     
   6.57385920198070        3.35260955862171        3.29494328018216     
   7.34803364931602        4.54349312315248        3.28328535353769     
   8.76615724177089        4.46845407698432        3.26927182175833     
   9.54053695215892        5.65913253861799        3.26258271638036     
   10.9588195364935        5.58376977784120        3.25451980342175     
   11.7334187329926        6.77487865599221        3.25498902757088     
   13.1518081101158        6.69873122517201        3.25451980342175     
   13.9263171239536        7.88939195322668        3.26266831329974     
   15.3445777842931        7.81417909107520        3.26927983129061     
   16.1189905099761        9.00495907015731        3.28396282808974     
   17.5370127598620        8.93022808239197        3.29484409521736     
   18.3111572534560        10.1213272096192        3.31290600850600     
   19.7289360542951        10.0473325398620        3.32253754320571     
   20.5026524500823        11.2388898053443        3.33870746372582     
   21.9204226640607        11.1654064967508        3.34124192716958     
   22.6938507898825        12.3570683610186        3.35174080207535     
   24.1120066419383        12.2835025159120        3.34603266762131     
   24.8853481978294        13.4749171132225        3.35174080207535     
   26.3040717079174        13.4009396403934        3.34124192716958     
   27.0773200267268        14.5920814005021        3.34521693742411     
   28.4965385405110        14.5175572499977        3.33450868289251     
   29.2696753221705        15.7085142784235        3.33931549318226     
   30.6891118067454        15.6336326344376        3.33215390371385     
   31.4621244951683        16.8245339833227        3.33867729637198     
   32.8813442341401        16.7497876773166        3.33594411637491     
   33.6541949285133        17.9407625343572        3.34279719186549     
   11.6060360867902        17.8664182733833        3.34239769705027     
   12.3787586729786        19.0575831622097        3.34654989802720     
   13.7969364329210        18.9835918748160        3.34477988619563     
   14.5695551274396        20.1750064848274        3.34279719186549     
   15.9873949560920        20.1011855786880        3.33594411637491     
   5.02680342831055       0.969575996610810        3.32646232179229     
   6.44465688233391       0.895392749236365        3.31464764511278     
   7.21807440764099        2.08635630820342        3.30107297748806     
   8.63617515933206        2.01157716024866        3.28893211991352     
   9.41012188693659        3.20228389182925        3.27690877425088     
   10.8284408878742        3.12705160240396        3.26927983129061     
   11.6027074673584        4.31769493237027        3.26266831329974     
   13.0211463590411        4.24219719326349        3.26206581763797     
   13.7956833369511        5.43278109700480        3.26258271638036     
   15.2140309876588        5.35748782645037        3.26927182175833     
   15.9885842109347        6.54826266088042        3.27690877425088     
   17.4067398527429        6.47335849938936        3.28893211991352     
   18.1812817657143        7.66442173324716        3.30178426918444     
   19.5991378332191        7.59026404486063        3.31430892991501     
   20.3735418670927        8.78177862754211        3.32833033784587     
   21.7912084639943        8.70836571796777        3.33450868289251     
   22.5653575284187        9.90018292917388        3.34521693742411     
   23.9831880344885        9.82695797507025        3.34101008758271     
   24.7571576547471        11.0186420472980        3.34721939134242     
   26.1754558482466        10.9450447961765        3.33438969180147     
   26.9493184029104        12.1363729640624        3.33870746372582     
   28.3680954627757        12.0620935427273        3.32253754320571     
   29.1417943943046        13.2531155081971        3.32833033784587     
   30.5608783088232        13.1782192334102        3.31430892991501     
   31.3343506934209        14.3690744666407        3.32337371883923     
   9.28655660346456        14.2940023660922        3.31464764511278     
   10.0597279072377        15.4848078524327        3.32646232179229     
   11.4785509163113        15.4099514009914        3.32303180099385     
   12.2513134558613        16.6008613289172        3.33482504838844     
   13.6696867900035        16.5264199747275        3.33411117429350     
   9.28039522088089       0.745272570390789        3.30178426918444     
   10.6987501784381       0.670322721757423        3.29484409521736     
   11.4724802372357        1.86100051940751        3.28396282808974     
   12.8910403956214        1.78571461624958        3.28277827790445     
   13.6651542590010        2.97637703478080        3.27697047546335     
   15.0837416252314        2.90106453613308        3.28275247108237     
   15.8581070636289        4.09183724659432        3.28328535353769     
   17.2765297071296        4.01682429050653        3.29494328018216     
   18.0510295867863        5.20785764932171        3.30107297748806     
   19.4691430464868        5.13354020415721        3.31464764511278     
   20.2437125251276        6.32498969405800        3.32337371883923     
   21.6614714663405        6.25150387753017        3.33215390371385     
   22.4360391145970        7.44333111023755        3.33931549318226     
   23.8536591443273        7.37023808834707        3.33754573734664     
   24.6281463328038        8.56209563546562        3.34088053693296     
   26.0459921966887        8.48873167534081        3.32812546308603     
   26.8203762530826        9.68026212212462        3.32915215942325     
   28.2386330075265        9.60614009653196        3.31041183262109     
   29.0129035994408        10.7972637493750        3.31290600850600     
   6.96459359398524        10.7223845153363        3.29484409521736     
   7.73867954569013        11.9132410158478        3.30178426918444     
   9.15744152021029        11.8379996598477        3.28893211991352     
   9.93125253785800        13.0287213619606        3.30107297748806     
   11.3499676231750        12.9535014703575        3.29494328018216     
   13.5353629208530       0.520116923869728        3.30206059740378     
   14.9542476008697       0.444941887514859        3.30539255772160     
   15.7280891740541        1.63574147106701        3.30115682083323     
   17.1469260070271        1.56071352773110        3.31034884510290     
   17.9210145315821        2.75168328075991        3.31083847459776     
   19.3395861036149        2.67724292683130        3.32303180099385     
   20.1138251967370        3.86855147044224        3.32646232179229     
   21.5319738743385        3.79489738296688        3.33594411637491     
   22.3063159436647        4.98660457746569        3.33867729637198     
   23.7240596805441        4.91344450378456        3.33933613094997     
   24.4985185773200        6.10532013910420        3.33842387879938     
   25.9161494915029        6.03204767370972        3.32780045693986     
   26.6907010182909        7.22368624728058        3.32380272312285     
   4.64165935478923        7.14970605889262        3.30539255772160     
   5.41620518601133        8.34090871865022        3.30206059740378     
   6.83440620119907        8.26610954754144        3.28277827790445     
   7.60888578507350        9.45697572992090        3.28396282808974     
   9.02733786011799        9.38170462600657        3.26927983129061     
   17.7918326931393       0.296006768807905        3.32624346472712     
   19.2109083141513       0.221429310202333        3.33411117429350     
   19.9845630850428        1.41255597252509        3.33482504838844     
   21.4032062334218        1.33860409439479        3.34239769705027     
   22.1769630086176        2.53010161978688        3.34279719186549     
   23.5950676745867        2.45670150790066        3.34477988619563     
   24.3689466205906        3.64842895822792        3.34155335257665     
   2.31976142813049        3.57508603455588        3.33411117429350     
   3.09388521233859        4.76675284294066        3.32624346472712     
   4.51160673696005        4.69290503672266        3.31034884510290     
   5.28600125836913        5.88413980623434        3.30115682083323     
   6.70397695112210        5.80949961984802        3.28275247108237     
   22.0484239941473       7.382426026446937E-002   3.34654989802720     
 -1.529887477727332E-004  3.030094566707617E-004   3.34818947446704     
  0.773173865159420        1.19152789701160        3.34654989802720     
   2.19111421207329        1.11791295170762        3.34239769705027     
   2.96447999138119        2.30951801804340        3.33482504838844     
   4.38221951235907        2.23574099166301        3.32303180099385     
   11.2153833372389        16.6009233158644        6.71591131431750     
   12.6340337179775        16.6755017026744        6.71443649717715     
   13.2794298354477        17.9406071243441        6.70760272582877     
   14.6984437431885        18.0150867780692        6.70770378305305     
   15.3439229695760        19.2795927685956        6.70924215448861     
   16.7631480502327        19.3541336684950        6.71361792836727     
   9.28045882174241        12.8032733339395        6.75146486032734     
   10.6988234941094        12.8782661840009        6.75271868911939     
   11.3432953514027        14.1442572953481        6.74100865460223     
   12.7619732838180        14.2192877154095        6.73757761016483     
   13.4069179751383        15.4846185964905        6.72498794471991     
   14.8260008287748        15.5595363176055        6.71983138712553     
   15.4713879701821        16.8241285931109        6.71296169004009     
   16.8908092731975        16.8989463877492        6.70993417901344     
   17.5363131192016        18.1631900117618        6.71392104956259     
   18.9557543105180        18.2380593391088        6.71467496437786     
   19.6009836295623        19.5026000645286        6.72931409183265     
   21.0201021337006        19.5776330275070        6.73173396092186     
   7.34799854101223        9.00508561737357        6.76938848086368     
   8.76614450260880        9.08013369243025        6.77754464082613     
   9.41014150969596        10.3462927168397        6.77607084265479     
   10.8284713716643        10.4215529158672        6.77780612574434     
   11.4725385562788        11.6876104359162        6.76939089694361     
   12.8910975848601        11.7629387356899        6.76451849317427     
   13.5354408369570        13.0285563136556        6.75140830226484     
   14.9543165103418        13.1037739362124        6.74180786193390     
   15.5991942273053        14.3686905463156        6.72933892827377     
   17.0184505207175        14.4436756042205        6.71893929764072     
   17.6638229890436        15.7080227792238        6.71407494135310     
   19.0832437736420        15.7827778459596        6.70677383651016     
   19.7287669494247        17.0471456578999        6.71321934883783     
   21.1479894249991        17.1218530232366        6.70972081970516     
   21.7932807010411        18.3868081721192        6.72521918878346     
   23.2121064384275        18.4616089471277        6.72267776509235     
   23.8569145603042        19.7273292219305        6.74115640938322     
   25.2753641266064        19.8021726270884        6.73595521488374     
   5.41612319411653        5.20775745939827        6.75140830226484     
   6.83435179415937        5.28254862330817        6.76451849317427     
   7.47844696547517        6.54825571865218        6.77609974544661     
   8.89670570189088        6.62343279970678        6.78490834179600     
   9.54052781857202        7.88947726200602        6.79041361681930     
   10.9588208897784        7.96484771606335        6.79242884150008     
   11.6027253591555        9.23092415349192        6.79042192095819     
   13.0211603912882        9.30644577180096        6.78490834179600     
   13.6651844975204        10.5722824072035        6.77609974544661     
   15.0837580748645        10.6476258723132        6.76404004713169     
   15.7281224222028        11.9129719606609        6.75154570288986     
   17.1469421012271        11.9880211099988        6.73595521488374     
   17.7918702816595        13.2527407190583        6.72575873295325     
   19.2109338253472        13.3273141686601        6.71152336590610     
   19.8563026159201        14.5917586515244        6.70972713100981     
   21.2753028932053        14.6660606819191        6.70031852167221     
   21.9208166535869        15.9308506784081        6.70812800774755     
   23.3395630640722        16.0051376546077        6.70264513068426     
   23.9848567606599        17.2706721249888        6.71634386868779     
   25.4032300764592        17.3450568314689        6.71152336590610     
   26.0481793465001        18.6112886346877        6.72575873295325     
   27.4662690917746        18.6856223528713        6.71893929764072     
   28.1109582734308        19.9522268863997        6.72933892827377     
   29.5288576626224        20.0264091259206        6.71983138712553     
   1.41844757008667       7.375493253953601E-002   6.70340228766510     
   2.83717781331725       0.147769930149142        6.70783679556762     
   3.48239136842143        1.41234522529741        6.71591131431750     
   4.90118442075973        1.48663586535218        6.72580039276542     
   5.54597054372069        2.75145328927059        6.74100865460223     
   6.96458693575928        2.82631984450408        6.75271868911939     
   7.60886752967794        4.09170461767577        6.76939089694361     
   9.02733909699993        4.16695483408025        6.77780612574434     
   9.67132685794775        5.43279283741662        6.79042192095819     
   11.0897334505823        5.50819342804000        6.79242884150008     
   11.7334130033056        6.77374527207543        6.79806373370154     
   13.1518021919246        6.84989417538237        6.79242884150008     
   13.7956759996193        8.11585723208720        6.79041361681930     
   15.2140063735276        8.19116464076607        6.77754464082613     
   15.8580858148217        9.45683910731134        6.76938848086368     
   17.2764844608296        9.53186710247192        6.75144338859432     
   17.9209831745507        10.7970294541731        6.74115640938322     
   19.3395331475533        10.8714693774627        6.72267776509235     
   19.9845395287117        12.1361591983680        6.71634386868779     
   21.4031713777205        12.2100856994117        6.70264513068426     
   22.0484272575139        13.4748503158465        6.70405231280456     
   23.4667512534559        13.5482937893749        6.69655765729568     
   24.1122534118157        14.8139473625479        6.70405231280456     
   25.5304340322402        14.8878875192875        6.70031852167221     
   26.1755867250083        16.1539288225910        6.70972713100981     
   27.5935690249231        16.2279078214065        6.70677383651016     
   28.2385396303675        17.4945398128962        6.71407494135310     
   29.6564165872402        17.5685275240300        6.70993417901344     
   30.3013331279360        18.8351913284334        6.71296169004009     
   31.7192052844517        18.9091015722391        6.70770378305305     
   32.3642109661311        20.1752434915287        6.70760272582877     
   33.7821809246840        20.2490026220242        6.70336472867440     
   5.67493041821628       0.295636457773823        6.72548567061939     
   7.09402792275179       0.370518575963542        6.73308958864154     
   7.73871498519814        1.63547643143456        6.75146486032734     
   9.15749116734443        1.71068486555241        6.75797593848373     
   9.80168127223578        2.97627524218330        6.77607084265479     
   11.2202056561489        3.05163698628940        6.77754464082613     
   11.8641527140939        4.31760082539250        6.79041361681930     
   13.2824904391063        4.39305674797798        6.78490834179600     
   13.9263043151821        5.65921832857717        6.79042192095819     
   15.3445460636210        5.73442756953829        6.77780612574434     
   15.9885337503536        7.00036736046271        6.77607084265479     
   17.4066622197467        7.07527755307569        6.75797593848373     
   18.0509443968810        8.34080625154774        6.75141057991984     
   19.4690300950731        8.41512592417473        6.73173396092186     
   20.1137253876267        9.68013063284719        6.72521918878346     
   21.5318543192279        9.75376956939559        6.70972081970516     
   22.1768789915224        11.0185587545032        6.70812800774755     
   23.5949761391250        11.0919224377649        6.70031852167221     
   24.2400323952410        12.3570729605771        6.70405231280456     
   25.6579786227779        12.4306472849521        6.70264513068426     
   26.3030174194614        13.6964612060602        6.70812800774755     
   27.7208693203436        13.7702480463393        6.70972081970516     
   28.3657820818994        15.0366844464769        6.71321934883783     
   29.7836499029941        15.1106761886121        6.71467496437786     
   30.4285317592056        16.3773829831436        6.71392104956259     
   31.8465017548969        16.4514917458228        6.71361792836727     
   32.4915599822914        17.7178471693092        6.70924215448861     
   10.4428357841944        17.7919822930248        6.70783679556762     
   11.0881020376187        19.0576462235846        6.70340228766510     
   12.5065675754011        19.1317255650064        6.70336472867440     
   9.93133008087235       0.519955783712549        6.75141057991984     
   11.3500490032515       0.595127337084180        6.75144338859432     
   11.9942721764514        1.86101059480080        6.76938848086368     
   13.4126876354119        1.93620470595779        6.76404004713169     
   14.0567250692898        3.20239719363006        6.77609974544661     
   15.4749071532658        3.27744796048769        6.76451849317427     
   16.1189504463286        4.54362026589375        6.76939089694361     
   17.5369461024166        4.61834929098071        6.75271868911939     
   18.1811827253447        5.88418555411163        6.75146486032734     
   19.5990118941225        5.95834910827743        6.73308958864154     
   20.2435697992028        7.22364973009958        6.72931409183265     
   21.6613088510585        7.29713511125056        6.71467496437786     
   22.3061640332465        8.56204053459465        6.71321934883783     
   23.7239002660055        8.63518497160539        6.70677383651016     
   24.3688237236422        9.90018316485602        6.70972713100981     
   25.7865491627642        9.97349963884236        6.71152336590610     
   26.4313167751990        11.2390393156146        6.71634386868779     
   27.8490734785898        11.3127923143810        6.72267776509235     
   28.4937069759028        12.5789318340051        6.72521918878346     
   29.9115808357969        12.6531116872897        6.73173396092186     
   30.5561596358055        13.9196208443433        6.72931409183265     
   8.50731671541100        13.9940676352447        6.73308958864154     
   9.15201565103727        15.2604831837145        6.72548567061939     
   10.5703243926206        15.3350671697992        6.72580039276542     
   14.1863273188311       0.745495767695997        6.75154570288986     
   15.6044950364659       0.820230357190492        6.74180786193390     
   16.2487925012118        2.08662154643189        6.75140830226484     
   17.6667299207841        2.16109839557628        6.73757761016483     
   18.3110906371619        3.42722473486702        6.74100865460223     
   19.7288477189049        3.50123228433436        6.72580039276542     
   20.3734104630317        4.76681567799743        6.72548567061939     
   21.7910632594410        4.84024522465362        6.71361792836727     
   22.4358681861634        6.10529764406604        6.71392104956259     
   23.8534872041329        6.17839672719220        6.70993417901344     
   24.4983504451595        7.44330804685140        6.71407494135310     
   25.9159934520785        7.51657268187963        6.71893929764072     
   26.5606634364110        8.78184128522535        6.72575873295325     
   27.9784068367371        8.85567690188420        6.73595521488374     
   28.6228153297157        10.1215119628679        6.74115640938322     
   6.57382306820419        10.1959408799296        6.75144338859432     
   7.21808205453197        11.4621732842254        6.75141057991984     
   8.63620314519417        11.5369729008576        6.75797593848373     
   18.4400662623330       0.969894468316484        6.72498794471991     
   19.8578434138064        1.04379031611086        6.71443649717715     
   20.5025818266249        2.30966677832390        6.71591131431750     
   21.9203429347736        2.38318309631175        6.70783679556762     
   22.5652301127031        3.64843070106656        6.70924215448861     
   23.9830640369304        3.72168228866310        6.70770378305305     
   24.6279919664525        4.98655071742717        6.71296169004009     
   26.0458545731734        5.05992519544534        6.71983138712553     
   26.6905605638345        6.32495320625614        6.72933892827377     
   4.64154498547764        6.39893102608283        6.74180786193390     
   5.28590679125141        7.66446759112883        6.75154570288986     
   6.70391082200890        7.73910474121469        6.76404004713169     
   22.6938069245799        1.19153416336159        6.70340228766510     
   24.1119645644855        1.26514245194088        6.70336472867440     
   24.7570722629918        2.53002002309866        6.70760272582877     
   2.70847940050142        2.60364330070044        6.71443649717715     
   3.35337229481399        3.86842225467870        6.72498794471991     
   4.77165332768322        3.94254920849988        6.73757761016483     
   12.6360155801620        16.6752068189925        10.0753332785133     
   14.0543426613526        16.7496530391055        10.0715244783877     
   14.6990458822089        18.0151905695032        10.0703627681294     
   16.1173769775457        18.0896388292713        10.0687992868254     
   16.7620815939444        19.3551787987527        10.0749897133084     
   18.1804135792436        19.4296274590582        10.0768801034143     
   10.7019372293144        12.8786039557462        10.1056265685730     
   12.1202544331533        12.9530484132010        10.1026558414034     
   12.7649490735844        14.2185778907934        10.0934398371924     
   14.1832714097222        14.2930261223358        10.0871029292831     
   14.8279711965834        15.5585590291244        10.0797909367754     
   16.2463001491235        15.6330100526178        10.0735005958545     
   16.8910031034911        16.8985478505495        10.0723856900332     
   18.3093352174813        16.9729995934791        10.0688562482926     
   18.9540382826076        18.2385415339418        10.0758771869615     
   20.3723703336052        18.3129914813974        10.0752932392312     
   21.0170685875732        19.5785331007645        10.0887951240073     
   22.4353983672676        19.6529794203388        10.0887240710929     
   8.76787684630301        9.08202389692158        10.1268071574678     
   10.1861917955470        9.15646647985814        10.1303661063834     
   10.8308801571462        10.4219897272920        10.1270627415772     
   12.2491952893052        10.4964349031725        10.1240509167268     
   12.8938861432029        11.7619587802383        10.1155246054295     
   14.3122062409984        11.8364072618229        10.1071240319271     
   14.9569014430534        13.1019340006654        10.0968505530722     
   16.3752281470511        13.1763859762090        10.0863312449811     
   17.0199284241943        14.4419184970841        10.0790574258074     
   18.4382604040237        14.5163716242714        10.0701553227076     
   19.0829626547274        15.7819099640069        10.0697152931083     
   20.5012974862369        15.8563613626972        10.0644611441597     
   21.1459977584423        17.1219036720941        10.0716583924994     
   22.5643311923409        17.1963510405477        10.0691608205556     
   23.2090258988624        18.4618930442788        10.0814529370934     
   24.6273569206280        18.5363363765293        10.0788028179836     
   25.2720459002046        19.8018748652737        10.0920060365252     
   26.6903752667974        19.8763140827547        10.0863312449811     
   6.83380618130362        5.28545356339876        10.1155246054295     
   8.25212743488718        5.35989684486871        10.1240509167268     
   8.89681903155144        6.62542216574353        10.1334281350874     
   10.3151352558398        6.69986610545119        10.1372617789903     
   10.9598234764772        7.96538796701175        10.1403088454237     
   12.3781387987836        8.03983309173033        10.1372617789903     
   13.0228265679831        9.30535294241754        10.1334281350874     
   14.4411461498982        9.37980017771907        10.1237982050227     
   15.0858373027220        10.6453213228172        10.1150689976019     
   16.5041629801960        10.7197717101748        10.1015785885447     
   17.1488590837239        11.9852963225467        10.0920060365252     
   18.5671920542318        12.0597485330657        10.0788028179836     
   19.2118918554162        13.3252801797221        10.0729243010904     
   20.6302287171047        13.3997311821603        10.0635047777449     
   21.2749296178647        14.6652702046402        10.0640446809354     
   22.6932662021533        14.7397182834896        10.0592356023211     
   23.3379633071173        16.0052596851062        10.0657080952301     
   24.7562976039378        16.0797028929954        10.0635047777449     
   25.4009895753334        17.3452441475606        10.0729243010904     
   26.8193207502396        17.4196829153585        10.0701553227076     
   27.4640084406189        18.6852210044842        10.0790574258074     
   28.8823381234796        18.7596569660147        10.0735005958545     
   29.5270261220667        20.0251913815840        10.0797909367754     
   30.9453580606212        20.0996263411959        10.0715244783877     
   2.83666981061828       0.148884589226116        10.0701470428215     
   4.25500294650653       0.223329486939280        10.0728641888287     
   4.89970747982487        1.48886703297190        10.0841425543272     
   6.31803755187757        1.56331235050681        10.0904952089602     
   6.96273754924468        2.82884753241959        10.1056265685730     
   8.38106243878419        2.90329266177429        10.1124512920900     
   9.02575641446844        4.16882249778746        10.1270627415772     
   10.4440758766255        4.24326762283525        10.1303661063834     
   11.0887642861872        5.50879156811646        10.1403088454237     
   12.5070824776619        5.58323612230420        10.1372617789903     
   13.1517687696209        6.84875578435751        10.1403088454237     
   14.5700888601128        6.92320121679233        10.1303661063834     
   15.2147771667884        8.18871928487313        10.1268071574678     
   16.6331037305719        8.26316673413011        10.1119537772090     
   17.2777959704318        9.52868613351319        10.1044757883744     
   18.6961300880138        9.60313521990825        10.0887240710929     
   19.3408273819858        10.8686595033665        10.0814529370934     
   20.7591662600340        10.9431085116990        10.0691608205556     
   21.4038655746862        12.2086392539996        10.0657080952301     
   22.8222051305092        12.2830858841628        10.0592356023211     
   23.4669082280791        13.5486242750458        10.0607270915127     
   24.8852417319081        13.6230664713191        10.0592356023211     
   25.5299360965059        14.8886060238545        10.0640446809354     
   26.9482673634202        14.9630455239997        10.0644611441597     
   27.5929579765619        16.2285852185043        10.0697152931083     
   29.0112855724921        16.3030214174880        10.0688562482926     
   29.6559745287541        17.5685589306716        10.0723856900332     
   31.0743026375184        17.6429933194107        10.0687992868254     
   31.7189941009600        18.9085282088339        10.0703627681294     
   33.1373245975224        18.9829640705373        10.0650762260719     
   33.7820210441370        20.2484978544775        10.0664848723569     
   11.7334490874611        20.3229324111531        10.0624519330712     
   7.09166324210609       0.372231861202400        10.0899555213195     
   8.50999187313535       0.446679226297460        10.0936310943560     
   9.15468802696925        1.71221575834142        10.1099869815587     
   10.5730126196057        1.78666157796368        10.1119537772090     
   11.2177025191939        3.05219213769101        10.1268071574678     
   12.6360243388058        3.12663580505048        10.1237982050227     
   13.2807109327507        4.39216021132465        10.1334281350874     
   14.6990338080929        4.46660357144447        10.1240509167268     
   15.3437199606706        5.73212309440629        10.1270627415772     
   16.7620479357473        5.80656665180353        10.1124512920900     
   17.4067379978885        7.07208451590590        10.1099869815587     
   18.8250728609728        7.14652953498560        10.0936310943560     
   19.4697673818306        8.41204875953609        10.0887951240073     
   20.8881077007329        8.48649450350788        10.0752932392312     
   21.5328062893090        9.75201941113274        10.0716583924994     
   22.9511482149135        9.82646375227459        10.0644611441597     
   23.5958473501999        11.0919944104768        10.0640446809354     
   25.0141867435281        11.1664365638158        10.0635047777449     
   25.6588841827671        12.4319716998657        10.0657080952301     
   27.0772156121957        12.5064110867247        10.0691608205556     
   27.7219090168193        13.7719475557446        10.0716583924994     
   29.1402350302324        13.8463846540662        10.0752932392312     
   29.7849255099243        15.1119212149596        10.0758771869615     
   31.2032485308472        15.1863568985097        10.0768801034143     
   31.8479400923945        16.4518927589316        10.0749897133084     
   9.79935971327873        16.5263299311638        10.0728641888287     
   10.4440551086211        17.7918649067288        10.0701470428215     
   11.8623839667965        17.8663040925712        10.0668197166372     
   12.5070846571930        19.1318394881644        10.0664848723569     
   13.9254172867400        19.2062828796367        10.0650762260719     
   11.3466384485235       0.595582020930815        10.1044757883744     
   12.7649653111115       0.670025055349927        10.1015785885447     
   13.4096522230753        1.93555631656097        10.1150689976019     
   14.8279784352065        2.00999749966748        10.1071240319271     
   15.4726642077787        3.27552297584868        10.1155246054295     
   16.8909939431336        3.34996287344350        10.1026558414034     
   17.5356817537262        4.61548383131990        10.1056265685730     
   18.9540173693292        4.68992484673661        10.0904952089602     
   19.5987104859046        5.95544459214699        10.0899555213195     
   21.0170509544798        6.02988628140345        10.0768801034143     
   21.6617492720387        7.29540789007005        10.0758771869615     
   23.0800922745973        7.36984962800432        10.0688562482926     
   23.7247924332812        8.63537545646023        10.0697152931083     
   25.1431319103073        8.70981609934159        10.0701553227076     
   25.7878316338210        9.97534631168874        10.0729243010904     
   27.2061640897108        10.0497857293764        10.0788028179836     
   27.8508597837223        11.3153180913262        10.0814529370934     
   29.2691846092892        11.3897559987244        10.0887240710929     
   29.9138770951668        12.6552887786709        10.0887951240073     
   7.86529179817714        12.7297265582026        10.0936310943560     
   8.50998280427462        13.9952588661363        10.0899555213195     
   9.92830161107851        14.0696981222423        10.0904952089602     
   10.5729951109268        15.3352306543588        10.0841425543272     
   11.9913172260768        15.4096727651488        10.0811256563827     
   15.6016091391850       0.818911707568654        10.0968505530722     
   17.0199401914647       0.893348908728838        10.0871029292831     
   17.6646272997511        2.15887619835034        10.0934398371924     
   19.0829616430141        2.23331359429085        10.0811256563827     
   19.7276539415336        3.49883763215502        10.0841425543272     
   21.1459938725000        3.57327590138265        10.0728641888287     
   21.7906913782317        4.83879908128706        10.0749897133084     
   23.2090334495065        4.91323849028935        10.0687992868254     
   23.8537354323254        6.17876385775034        10.0723856900332     
   25.2720747919675        6.25320362033898        10.0735005958545     
   25.9167761997573        7.51873113740307        10.0790574258074     
   27.3351096507221        7.59317058000769        10.0863312449811     
   27.9798080806421        8.85869945115105        10.0920060365252     
   5.93122824097776        8.93313855396102        10.1015785885447     
   6.57592211333005        10.1986671650417        10.1044757883744     
   7.99424018210774        10.2731070073919        10.1119537772090     
   8.63893050742751        11.5386350452384        10.1099869815587     
   10.0572461577538        11.6130760059079        10.1124512920900     
   19.8565971059544        1.04222141495321        10.0753332785133     
   21.2749334099347        1.11665740850913        10.0668197166372     
   21.9196316130459        2.38218582353076        10.0701470428215     
   23.3379711803082        2.45662368879745        10.0650762260719     
   23.9826730814016        3.72215186063436        10.0703627681294     
   25.4010123425968        3.79659125866996        10.0715244783877     
   26.0457157459205        5.06212022826298        10.0797909367754     
   3.99714493109834        5.13656028842104        10.0871029292831     
   4.64184595004685        6.40208961125166        10.0968505530722     
   6.06017185608041        6.47653055799529        10.1071240319271     
   6.70486700648803        7.74205768010759        10.1150689976019     
   8.12318604358124        7.81649933671616        10.1237982050227     
   24.1116073632406        1.26553329632953        10.0664848723569     
   2.06303915555410        1.33997381840542        10.0668197166372     
   2.70774384616886        2.60550708554002        10.0753332785133     
   4.12607766319439        2.67994896004604        10.0811256563827     
   4.77078015894985        3.94548123034199        10.0934398371924     
   6.18910815599842        4.01992403284119        10.1026558414034     
